{
  "skillnames": {
    "as_assaultslash": "Dash and Slash",
    "as_attackroar_d_dark": "Slayer Form",
    "as_attackroar_l_light": "Slayer Form",
    "as_backtumbling": "Assassin’s Step",
    "as_blindingburst": "Blinding Burst",
    "as_blindside": "Ambush",
    "as_carvesignetchain": "Sigil Strike",
    "as_chainsignetburst": "Agony Rune",
    "as_explosionpoison": "Apply Lethal Venom",
    "as_flashslash": "Lightning Slash",
    "as_hitmanmind": "Oath of Accuracy",
    "as_mirrorattack": "Throw Shuriken",
    "as_quickmove": "Flurry",
    "as_senseboost": "Sensory Boost",
    "as_shadowdodge": "Flash of Speed",
    "as_shadowdrop": "Shadowfall",
    "as_signetflare": "Rune Burst",
    "as_signetwave": "Rune Knife",
    "as_silentburst": "Signet Silence",
    "as_stabstance": "Deadly Abandon",
    "as_stigma_moonburst": "Rune Swipe",
    "as_stigma_shadowwalk": "Shadow Walk",
    "as_stigma_sunburst": "Divine Rune",
    "as_stunburst": "Explosive Burst",
    "as_stuningintention": "Apply Deadly Poison",
    "as_tigerassault": "Beastly Scar",
    "as_venomslash": "Quickening Doom",
    "as_venomstab": "Venomous Strike",
    "as_visiouseye": "Eye of Wrath",
    "as_whisperofgale": "Aethertwisting",
    "as_windslash": "Agonizing Slash",
    "ch_blessprotect": "Blessing of Stone",
    "ch_chakra": "Stamina Restoration",
    "ch_chant_improvedcritical": "Hit Mantra",
    "ch_chant_improvedresiststun": "Enhancement Mantra",
    "ch_chant_invincible": "Invincibility Mantra",
    "ch_enhancedpowerattack": "Safeguard",
    "ch_healingtank": "Healing Conduit",
    "ch_heroicstrike": "Soul Crush",
    "ch_imbuepower": "Blessing of Wind",
    "ch_improvedallattack": "Word of Inspiration",
    "ch_improvedalldefend": "Word of Protection",
    "ch_improvedbody": "Elemental Screen",
    "ch_improvedlifestream": "Word of Life",
    "ch_mountaincrash": "Mountain Crash",
    "ch_mpheal": "Magic Recovery",
    "ch_nightwish": "Rage Spell",
    "ch_phoenixstep": "Rise",
    "ch_powervitality": "Increase Stamina",
    "ch_protectself": "Safer Ward",
    "ch_shockwave": "Disorientating Blow",
    "ch_slowcrash": "Numbing Blow",
    "ch_soaredrock": "Soul Lock",
    "ch_splashswing": "Splash Swing",
    "ch_stigma_angelicwall": "Divine Curtain",
    "ch_stigma_demonicwall": "Curtain of Aether",
    "ch_stigma_recoverword": "Recovery Spell",
    "ch_surperiorheal": "Healing Burst",
    "ch_swordbind": "Binding Word",
    "ch_thruststrike": "Burst",
    "ch_triplethrust": "Annihilation",
    "cl_imbuemana": "Promise of Aether",
    "el_bind": "Body Root",
    "el_connectboost": "Spiritual Bond",
    "el_slave_stormservent_dark": "Summon Cyclone Servant",
    "el_dimisspolymorph": "Weaken Spirit",
    "el_drainenergy": "Absorb Vitality",
    "el_elementalcharge": "Healing Spirit",
    "el_elementtransfer": "Transference",
    "el_enchantarmor": "Strengthening Spirit: Spirit Armour",
    "el_enchantmentburst": "Ignite Aether",
    "el_enervationcurse": "Withering Gloom",
    "el_enfeeblement": "Shackle of Vulnerability",
    "el_escape": "Cloaking Word",
    "el_ethercharge": "Spirit Recovery",
    "el_fireaid": "Blessing of Fire",
    "el_hellcurse": "Infernal Blight",
    "el_hellpain": "Infernal Pain",
    "el_slave_stormservent_light": "Summon Cyclone Servant",
    "el_manareverse": "Magic Implosion",
    "el_order_elementalfield": "Command: Wall of Protection",
    "el_order_omen": "Spirit Hypnosis",
    "el_order_sacrifice": "Spirit Substitution",
    "el_painroot": "Dark Fetter",
    "el_silence": "Sigil of Silence",
    "el_sleepingspirit": "Hand of Torpor",
    "el_soulsteal": "Soul Torrent",
    "el_stigma_order_destructimpact": "Command: Ruinous Offensive",
    "el_stigma_order_ethereruption_light": "Command: Burn-to-Ashes",
    "el_stigma_order_shadoweruption_dark": "Spirit Explosion",
    "el_stigma_stormblade": "Cyclone of Wrath",
    "el_sympatheticswitch": "Enmity Swap",
    "el_terrorspirit": "Fear Shriek",
    "en_th_electricbind": "Electric Descent",
    "en_th_electricbody": "Electric Armour",
    "fi_anklegrab": "Ankle Snare",
    "fi_berserkstance": "Berserking",
    "fi_blademode": "Slaughter",
    "fi_burserklance": "Sure Strike",
    "fi_charginghit": "Precision Cut",
    "fi_chargingshock": "Severe Precision Cut",
    "fi_counterchain": "Counter Armour",
    "fi_cripplingcut": "Crippling Cut",
    "fi_drainsword": "Draining Sword",
    "fi_enfeeblehit": "Weakening Blow",
    "fi_heavyimpact": "Earthquake Wave",
    "fi_howling": "Howl",
    "fi_jumpattack": "Whirling Strike",
    "fi_jumpingslash": "Vault Slash",
    "fi_kneecrash": "Tendon Slice",
    "fi_lockdownimpact": "Lockdown",
    "fi_potentialhealth": "Improved Stamina",
    "fi_ragespirit": "Dauntless Spirit",
    "fi_revengeslash": "Vengeful Strike",
    "fi_seismicdrain": "Fury Absorption",
    "fi_sharpnesshit": "Sharp Strike",
    "fi_stigma_draincut": "Draining Blow",
    "fi_stigma_forceburst": "Shattering Wave",
    "fi_stigma_shockburst": "Piercing Rupture",
    "fi_survivorstance": "Second Wind",
    "fi_technicalcounter": "Spite Strike",
    "fi_vorpalhit": "Vicious Blow",
    "fi_whirldrain": "Exhausting Wave",
    "fi_whirltornado": "Revival Wave",
    "kn_absolutescare": "Terrible Howl",
    "kn_brainstorm": "Divine Justice",
    "kn_breakpower": "Break Power",
    "kn_conquestmind": "Power of Restoration",
    "kn_defendshield": "Unyielding Armour",
    "kn_destructshield": "Shield Blast",
    "kn_destructwish": "Empyrean Fury",
    "kn_divinepower": "Divine Fury",
    "kn_divineslash": "Punishment",
    "kn_fortitudewave": "Punishing Wave",
    "kn_grandprotection": "Bodyguard",
    "kn_highprovoke": "Incur Wrath",
    "kn_holywrath": "Holy Shield",
    "kn_intimidation": "Threatening Taunt",
    "kn_invinsibleprotect": "Empyrean Providence",
    "kn_invinsibleshield": "Shield of Faith",
    "kn_massiveprovoke": "Snickering Roar",
    "kn_powersink": "Magic Smash",
    "kn_realsnacher": "Focused Capture",
    "kn_recover": "Prayer of Resilience",
    "kn_reflectshield": "Barricade of Steel",
    "kn_sentinel": "Prayer of Victory",
    "kn_stigma_demonpunishment": "Punishment of Darkness",
    "kn_stigma_godpunishment": "Punishment of Light",
    "kn_stigma_resistarmor": "Aether Armour",
    "kn_stunningsnacher": "Doom Lure",
    "kn_stunningsnacher_new": "Doom Lure",
    "kn_thunderblade": "Inquisitor's Blow",
    "kn_triplesnacher": "Illusion Chains",
    "p_equip_dual": "Advanced Dual-Wielding",
    "pr_bindingheal": "Sympathetic Heal",
    "pr_blindinglight": "Blinding Light",
    "pr_calllightning": "Call Lightning",
    "pr_concentratemode": "Hand of Concentration",
    "pr_coursewound": "Festering Wound",
    "pr_eternalservent_dark": "Summon: Noble Energy",
    "pr_healingservent_dark": "Summon Healing Servant",
    "pr_firstaid": "Flash of Recovery",
    "pr_graceofgod": "Grace of Empyrean Lord",
    "pr_healershand": "Benevolence",
    "pr_healinggrace": "Noble Grace",
    "pr_heallife": "Hand of Regeneration",
    "pr_eternalservent_light": "Summon: Noble Energy",
    "pr_healingservent_light": "Summon Healing Servant",
    "pr_massdispel": "Splendour of Purification",
    "pr_massemergentheal": "Splendour of Recovery",
    "pr_memoryblur": "Shatter Memory",
    "pr_offensivemode": "Prayer of Destruction",
    "pr_painlinks": "Chain of Suffering",
    "pr_powersmite": "Punishing Earth",
    "pr_purgatory": "Earth's Wrath",
    "pr_regeneraitionshine": "Splendour of Rebirth",
    "pr_reversecondition": "Reverse Condition",
    "pr_revivehand": "Hand of Reincarnation",
    "pr_sageswisdom": "Sage's Wisdom",
    "pr_stigma_abysalsanctuary": "Marchutan's Splendour",
    "pr_stigma_divinesanctuary": "Yustiel's Splendour",
    "pr_stigma_suggestion": "Stability",
    "pr_suffermemory": "Enfeebling Burst",
    "pr_tranquility": "Ripple of Purification",
    "ra_backdashstab": "Retreating Slash",
    "ra_breakshot": "Bloodlust Arrow",
    "ra_breathofnature": "Breath of Nature",
    "ra_blazingtrap_dark": "Blazing Trap",
    "ra_callcompanion_dark": "Call Gryphu",
    "ra_fairyflare_dark": "Trap of Clairvoyance",
    "ra_heavenstrap_dark": "Snare Trap",
    "ra_snakebitetrap_dark": "Skybound Trap",
    "ra_throwingtrap_dark": "Trap of Slowing",
    "ra_draineye": "Keen Cleverness",
    "ra_enchantbow": "Bow of Blessing",
    "ra_explosionarrow": "Explosive Arrow",
    "ra_huntermind": "Hunter's Might",
    "ra_blazingtrap_light": "Blazing Trap",
    "ra_callcompanion_light": "Call Gryphu",
    "ra_fairyflare_light": "Trap of Clairvoyance",
    "ra_heavenstrap_light": "Snare Trap",
    "ra_snakebitetrap_light": "Skybound Trap",
    "ra_throwingtrap_light": "Trap of Slowing",
    "ra_lightningshot": "Lightning Arrow",
    "ra_marksmanmode": "Sniper Stance",
    "ra_massexplosionarrow": "Lethal Arrow",
    "ra_movingshot": "Gale Arrow",
    "ra_painarrow": "Agonizing Arrow",
    "ra_panthermove": "Speed of the Wind",
    "ra_paralyzearrow": "Sleep Arrow",
    "ra_resistmind": "Nature's Resolve",
    "ra_screamshot": "Arrow of the Destroyer",
    "ra_shadowarrow": "Raging Wind Arrow",
    "ra_silentarrow": "Silence Arrow",
    "ra_spoutarrow": "Arrow Deluge",
    "ra_stigma_ancientarrow_light": "Holy Arrow",
    "ra_stigma_mysticarrow_dark": "Arrow of Virago",
    "ra_stigma_tigereye": "Bestial Fury",
    "ra_trackermind": "Sharpen Arrows",
    "sc_trueshotmind": "Focused Shots",
    "st_alldodge": "Quick Dodge",
    "st_attack": "Lightning Stance",
    "st_bigkick": "Existence & Oblivion",
    "st_bspin": "Whirling Blow",
    "st_bukdu": "Eclipse Strike",
    "st_critical": "Battle-Ready",
    "st_dash": "Advancing Strike",
    "st_delay": "Great Bear Strike",
    "st_p_statboostelemental": "Elemental Defence Boost",
    "st_p_statboostmaxhp": "Max. HP Boost",
    "st_p_statboostparry": "Boost Parry",
    "st_p_statboostphyatk": "Boost Physical Attack",
    "st_p_statboostspeed": "Boost Movement Speed",
    "st_p_statbooststunarp": "Boost Stunning Breakthrough",
    "st_pbind": "Fist of Death Break",
    "st_reflect": "Eternal Corridor",
    "st_speed": "Ultrarapid",
    "st_spinkk": "Roundhouse Kick",
    "st_stance": "Wall of Steel",
    "st_superbind": "Silence Strike",
    "st_supercritical": "Combat Stance",
    "th_brokenthunder": "Split Thunder",
    "th_cryingthunder": "Thunder’s Lament",
    "th_elecstorm": "Electric Shock",
    "th_electricbody": "Amped Armour",
    "th_electricboost": "Electric Boost",
    "th_electriccharge": "Electric Charge",
    "th_electricthrow": "Lightning Strike",
    "th_judgement": "Heavenly Judgement",
    "th_lightningbolt": "Plasma Discharge",
    "th_lightningshock": "Thundertide",
    "th_lightningstorm": "Thunderstrike",
    "th_lightningthunder": "Massive Thundertide",
    "th_overload": "Ion Flux Concentration",
    "th_poweroff": "Reserve Mode",
    "th_recoverblow": "Rev Up",
    "th_recoverslash": "Loaded Slash",
    "th_returnshadow": "Power Circuit",
    "th_returnshadow_new": "Power Circuit",
    "th_shockblow": "Primed Strike",
    "th_swiftrecover": "Tonic Flash",
    "th_swiftresist": "Magnetic Discharge",
    "th_thunderbolt": "Thunder Ray",
    "th_thunderreflect": "Flash Shield",
    "th_thunderstorm": "Massive Thunderstrike",
    "wa_gatecrush": "Siegebreaker",
    "wa_steadiness": "Unwavering Devotion",
    "wi_arcaneboost": "Vaizel's Wisdom",
    "wi_arcanepower": "Zikel's Wisdom",
    "wi_arcanewisdom": "Lumiel's Wisdom",
    "wi_countermagic": "Curse of Weakness",
    "wi_cursedtree": "Curse of Roots",
    "wi_frostpillar_dark": "Ice Sheet",
    "wi_dark_icyveins": "Boon of Quickness",
    "wi_stigma_lavawave_dark": "Lava Tempest",
    "wi_summontornado_dark": "Summon Whirlwind",
    "wi_elementalseal": "Elemental Ward",
    "wi_flamestrike": "Flame Spray",
    "wi_hpmpexchange": "Exchange Vitality",
    "wi_icebarrier": "Barrier of Severance",
    "wi_icyshield": "Wintry Armour",
    "wi_illusiondance": "Illusion",
    "wi_illusionstorm": "Illusion Storm",
    "wi_frostpillar_light": "Ice Sheet",
    "wi_light_icyveins": "Boon of Strength",
    "wi_stigma_volcanicflame_light": "Big Magma Eruption",
    "wi_summontornado_light": "Summon Whirlwind",
    "wi_massexplosion": "Fire Burst",
    "wi_raisingstorm": "Meteorite",
    "wi_rockfall": "Summon Rock",
    "wi_sleepingstorm": "Sleeping Storm",
    "wi_soulgain": "Supplication of Focus",
    "wi_stigma_icelance": "Ice Harpoon",
    "wi_stormshock": "Arcane Thunderbolt",
    "wi_stormstrike": "Hurricane Strike",
    "wi_turnedmirror": "Dark Illusions",
    "wi_windcutter": "Wind Cut Down",
    "wi_zeropoint": "Glacial Shard"
  },
  "skilldesc": {
    "as_assaultslash": "Inflicts [%e1.DashATK.MinDamage]~[%e1.DashATK.MaxDamage] damage by charging the target within a [%First_Target_Valid_Distance]m radius.\nStigma Skill.",
    "as_attackroar_d_dark": "You turn into a Slayer for [%e1.ShapeChange.RemainTime]. [%e2.StatUp.StatName] increases by [%e2.StatUp.Value], [%e2.StatUp.StatName2] by [%e2.StatUp.Value2] and [%e2.StatUp.StatName3] by [%e2.StatUp.Value3]%%. You also recover MP quickly. Your range is also increased by 2m while you are flying.\nStigma Skill",
    "as_attackroar_l_light": "You turn into a Slayer for [%e1.ShapeChange.RemainTime]. [%e2.StatUp.StatName] increases by [%e2.StatUp.Value], [%e2.StatUp.StatName2] by [%e2.StatUp.Value2] and [%e2.StatUp.StatName3] by [%e2.StatUp.Value3]%%. You also recover MP quickly. Your range is also increased by 2m while you are flying.\nStigma Skill",
    "as_backtumbling": "Deals [%e1.BackDashATK.MinDamage]–[%e1.BackDashATK.MaxDamage] physical damage to the target and stuns them temporarily. You are knocked back 15m. You enter stealth mode for 3 sec., during which your movement speed increases.\nStigma Skill",
    "as_blindingburst": "Blinds enemies around you in a radius of 15 meters for [%e1.Blind.RandomTime]–[%e1.Blind.RemainTime] and reduces [%e2.StatDown.StatName] by [%e2.StatDown.Value].\nStigma Skill",
    "as_blindside": "Jumps behind a target's back within [%First_Target_Valid_Distance]m to inflict [%e1.MoveBehindATK.MinDamage]~[%e1.MoveBehindATK.MaxDamage] physical damage. May also stun it.\nStigma Skill.",
    "as_carvesignetchain": "Inflicts [%e1.CarveSignet.MinDamage]~[%e1.CarveSignet.MaxDamage] physical damage on the target and engraves a signet pattern on the target up to [%e1.CarveSignet.SignetGrade] level. \nChain Skill Level 2\nRune Carve – Sigil Strike\nStigma acquired",
    "as_chainsignetburst": "Inflicts [%e1.SpellATK_Instant.FixDamage] fire damage to a target within a [%First_Target_Valid_Distance]m radius.\nChain Skill Level 2\nAll Pain Rune - Agony Rune\nStigma Skill",
    "as_explosionpoison": "Uses 5 Scolopen Poison to apply poison to your weapon. For [%e1.Provoker.RemainTime], there is a [%e1.Provoker.ConditionProb]%% chance of inflicting additional [%e1.Provoker.OtherSkill.e1.ProcATK_Instant.Damage] damage to the target with each attack.\nStigma Skill",
    "as_flashslash": "Inflicts [%e1.SkillATK_Instant.MinDamage]~[%e1.SkillATK_Instant.MaxDamage] damage to the target. The target's [%e2.StatDown.StatName] decreases by [%e2.StatDown.Value] for [%e2.StatDown.RemainTime].\nChain Skill Level 2\nSwift Edge - Lightning Slash\nStigma Skill.",
    "as_hitmanmind": "Increases your [%e1.StatUp.StatName] by [%e1.StatUp.Value] and [%e2.StatUp.StatName] by [%e2.StatUp.Value] for [%e1.StatUp.RemainTime].",
    "as_mirrorattack": "Deals [%e1.SkillATK_Instant.MinDamage]~[%e1.SkillATK_Instant.MaxDamage] physical damage to a target immobilized in mid-air within [%First_Target_Valid_Distance]m.\nStigma Skill.",
    "as_quickmove": "Your [%e1.StatUp.StatName] increases by [%e1.StatUp.Value]%% for [%e1.StatUp.RemainTime].\nStigma Skill",
    "as_senseboost": "Increases [%e1.StatUp.StatName] by [%e1.StatUp.Value] and [%e2.StatUp.StatName] by [%e2.StatUp.Value] for [%e1.StatUp.RemainTime].\nReceive Stigmas",
    "as_shadowdodge": "You move [%e1.RandomMoveLoc.Distance]m forward instantly, and all immobilization and movement speed reduction debuffs are removed.\nStigma Skill",
    "as_shadowdrop": "Inflicts [%e1.SkillATK_Instant.MinDamage]–[%e1.SkillATK_Instant.MaxDamage] physical damage to a stunned enemy, causing them to stumble in the process.\nResets the cooldown of Focused Evasion.\nStigma Skill",
    "as_signetflare": "Erases the rune carved on a target within a [%First_Target_Valid_Distance]m radius up to the level of [%e1.SignetBurst.SignetGrade] and sets it to burst, damaging the target.\nThe amount of damage varies on the target's rune level.\nStigma Skill",
    "as_signetwave": "Deals [%e1.CarveSignet.MinDamage]~[%e1.CarveSignet.MaxDamage] physical damage to a target within [%First_Target_Valid_Distance]m, and carves runes up to level [%e1.CarveSignet.SignetGrade]. \nStigma Skill.",
    "as_silentburst": "Ignite a rune carved on a target within a [%First_Target_Valid_Distance]m radius up to level [%e1.SignetBurst.SignetGrade], causing the rune to explode inflicting damage and silencing the target for 30 seconds. \nThe chance of silencing the target varies depending on the level of the rune carved on the target.\nStigma Skill",
    "as_stabstance": "[%e1.StatUp.StatName] is increased by [%e1.StatUp.Value]%% for [%e1.StatUp.RemainTime] and [%e2.StatDown.StatName] is decreased by [%e2.StatDown.Value].\nStigma Skill",
    "as_stigma_moonburst": "Detonates the seal on a target within [%First_Target_Valid_Distance]m up to level [%e1.SignetBurst.SignetGrade]. Also blinds for 4 sec.\nStigma Skill",
    "as_stigma_shadowwalk": "You are in advanced stealth mode for [%e1.Hide.RemainTime]. Your movement speed decreases by [%e1.Hide.Speed]%% while the skill is in effect.\nYou may use up to 3 magic buffs on yourself and still remain in stealth.\nNot available in battle.\nStigma Skill",
    "as_stigma_sunburst": "Detonates the seal on a target within [%First_Target_Valid_Distance]m up to level [%e1.SignetBurst.SignetGrade]. The target is also silenced for 7 seconds and their attack speed is decreased.\nStigma Skill",
    "as_stunburst": "Inflicts [%e1.SpellATK_Instant.FixDamage] magical fire damage on a target within a [%First_Target_Valid_Distance] m radius of you, and also stuns the target.\nStigma Skill",
    "as_stuningintention": "Uses 2 Scolopen Poison to apply poison to your weapon. For [%e1.Provoker.RemainTime], there is a [%e1.Provoker.ConditionProb]%% chance of stunning the target with each attack.\nStigma Skill",
    "as_tigerassault": "Inflicts [%e1.CarveSignet.MinDamage]~[%e1.CarveSignet.MaxDamage] damage to the target and engraves a signet rune on the target up to the level of [%e1.CarveSignet.SignetGrade]. \nChain Skill Level 4\nBeastly Thrash - Beastly Scar\nStigma Skill.",
    "as_venomslash": "Inflicts [%e1.SkillATK_Instant.MinDamage]–[%e1.SkillATK_Instant.MaxDamage] physical damage to the target, also causing [%e1.SkillATK_Instant.AddDamage] damage and making the target stumble if they are poisoned or stunned.\nStigma Skill",
    "as_venomstab": "Chance to inflict [%e1.SkillATK_Instant.MinDamage]~[%e1.SkillATK_Instant.MaxDamage] damage and poison the target for [%e2.Poison.RemainTime]. If used on the target's back, inflicts an additional [%e1.SkillATK_Instant.AddDamage] damage.\nStigma Skill.",
    "as_visiouseye": "Performs critical strike attacks up to [%e1.OneTimeBoostSkillCritical.BoostCount] times for [%e1.OneTimeBoostSkillCritical.RemainTime]. However, your [%e2.StatDown.StatName] decreases by [%e2.StatDown.Value].\nStigma Skill",
    "as_whisperofgale": "You can resist [%e1.AlwaysResist.Count] magical attacks. Lasts [%e1.AlwaysResist.RemainTime].\nStigma Skill",
    "as_windslash": "Inflicts [%e1.SkillATK_Instant.MinDamage]~[%e1.SkillATK_Instant.MaxDamage] damage to the target. Decreases the target's [%e2.StatDown.StatName] by [%e2.StatDown.Value] and [%e3.StatDown.StatName] by [%e3.StatDown.Value] for [%e2.StatDown.RemainTime].\nChain Skill Level 2.\nSwift Edge - Agonizing Slash\nStigma Skill.",
    "ch_blessprotect": "For [%e1.StatUp.RemainTime], increases [%e1.StatUp.StatName] of a target within [%First_Target_Valid_Distance]m distance by [%e1.StatUp.Value]%%, [%e2.StatUp.StatName] by [%e2.StatUp.Value] points and [%e3.StatUp.StatName] by [%e3.StatUp.Value]%% points.\nReceive Stigmas",
    "ch_chakra": "Restores [%e1.Heal_Instant.Heal] of your HP and 2,250 of your MP.\nStigma Skill",
    "ch_chant_improvedcritical": "Increases [%e1.Aura.OtherSkill.e1.StatUp.StatName] by [%e1.Aura.OtherSkill.e1.StatUp.Value], [%e1.Aura.OtherSkill.e1.StatUp.StatName2] by [%e1.Aura.OtherSkill.e1.StatUp.Value2], [%e1.Aura.OtherSkill.e2.StatUp.StatName] by [%e1.Aura.OtherSkill.e2.StatUp.Value], and [%e1.Aura.OtherSkill.e2.StatUp.StatName2] by [%e1.Aura.OtherSkill.e2.StatUp.Value2] for you and your group members within a [%e1.Aura.Range]m radius.\nActive Skill\nStigma Skill",
    "ch_chant_improvedresiststun": "Increases [%e1.Aura.OtherSkill.e1.StatUp.StatName] of you and your group members within [%e1.Aura.Range]m radius of you by [%e1.Aura.OtherSkill.e1.StatUp.Value].\nActive Skill",
    "ch_chant_invincible": "Recovers the MP of the caster and group members within a [%e1.Aura.Range]m radius by [%e1.Aura.OtherSkill.e1.MPHeal.CheckTimeHeal], and also increases [%e1.Aura.OtherSkill.e2.StatUp.StatName], [%e1.Aura.OtherSkill.e3.StatUp.StatName], and [%e1.Aura.OtherSkill.e4.StatUp.StatName].\nActive Skill\nStigma Skill",
    "ch_enhancedpowerattack": "You and up to 6 party members within 20m are protected by a shield with a [%e1.Shield.ConditionProb]%% chance of blocking the damage each time you receive a [%e1.Shield.Condition] for [%e1.Shield.RemainTime]. Also greatly increases your resistance to stumbling, stun and knockback. Your protective shield absorbs [%e1.Shield.CoverValue]%% of the damage received per attack.\nStigma Skill",
    "ch_healingtank": "For [%e1.HealCastorOnAttacked.RemainTime], HP of the caster and group members is restored by [%e1.HealCastorOnAttacked.HealPoint] whenever the target suffers damage. But only those who stay within [%e1.HealCastorOnAttacked.EffectArea]m radius of the target can restore their HP.\nStigma Skill",
    "ch_heroicstrike": "Deals [%e1.SkillATK_Instant.MinDamage]~[%e1.SkillATK_Instant.MaxDamage] physical damage to a stunned target and causes it to become [%e1.SkillATK_Instant.AddEffect].\nStigma Skill.",
    "ch_imbuepower": "For [%e1.Provoker.RemainTime], there is a [%e1.Provoker.ConditionProb]%% chance of inflicting additional [%e1.Provoker.OtherSkill.e1.ProcATK_Instant.Damage] damage to the target each time you [%e1.Provoker.Condition].\nStigma Skill.",
    "ch_improvedallattack": "Increases [%e1.StatUp.StatName] by [%e1.StatUp.Value], [%e2.StatUp.StatName] by [%e2.StatUp.Value], and [%e3.StatUp.StatName] by [%e3.StatUp.Value]%% of your group members within a 20m radius of you for [%e1.StatUp.RemainTime].\nStigma Skill",
    "ch_improvedalldefend": "Increases [%e1.StatUp.StatName] by [%e1.StatUp.Value] and [%e2.StatUp.StatName] by [%e2.StatUp.Value] of your group members within a 20m radius of you for [%e1.StatUp.RemainTime].\nStigma Skill",
    "ch_improvedbody": "Increases the [%e1.StatUp.StatName] and [%e2.StatUp.StatName] of you and up to 6 allies within a 20m radius by [%e1.StatUp.Value] and [%e2.StatUp.Value] for [%e1.StatUp.RemainTime].\nStigma Skill",
    "ch_improvedlifestream": "Heals all group members within 20m of you by [%e1.Heal.CheckTimeHeal] every [%e1.Heal.CheckTime] for [%e1.Heal.RemainTime].\nStigma Skill",
    "ch_mountaincrash": "Inflicts [%e1.SkillATK_Instant.MinDamage]~[%e1.SkillATK_Instant.MaxDamage] damage to a target within a [%First_Target_Valid_Distance]m radius, and deals periodic [%e2.SpellATK.Damage] damage every [%e2.SpellATK.CheckTime] for [%e2.SpellATK.RemainTime].\nStigma Skill.",
    "ch_mpheal": "Recovers the MP of the caster or a target within a [%First_Target_Valid_Distance]m radius by [%e1.MPHeal_Instant.Heal].\nStigma Skill",
    "ch_nightwish": "For [%e1.StatUp.RemainTime], your [%e1.StatUp.StatName] increases by [%e1.StatUp.Value]%%. But in the meantime, your healing skill casting time increases by 20%%.\nStigma Skill",
    "ch_phoenixstep": "Removes all your Stun, Knockdown, Stumble, Spin, and Aether’s Hold states. Increases [%e2.StatUp.StatName] by [%e2.StatUp.Value] for [%e2.StatUp.RemainTime].\nChain Skill Level 1\nStigma Skill",
    "ch_powervitality": "Removes all magical debuffs that limit movement and increases [%e2.StatUp.StatName] and [%e2.StatUp.StatName2] by [%e2.StatUp.Value] for [%e2.StatUp.RemainTime].\nStigma Skill",
    "ch_protectself": "You are protected by a shield with a [%e1.Shield.ConditionProb]%% chance of blocking the damage each time you receive a [%e1.Shield.Condition] for [%e1.Shield.RemainTime]. Also increases your resistance to stumbling and stuns. Your protective shield absorbs [%e1.Shield.CoverValue]%% of the damage received per attack.\nStigma Skill",
    "ch_shockwave": "Inflicts [%e1.SkillATK_Instant.MinDamage]~[%e1.SkillATK_Instant.MaxDamage] physical damage on the target and puts it in the [%e1.SkillATK_Instant.AddEffect] state.\nStigma Skill",
    "ch_slowcrash": "Deals [%e1.SkillATK_Instant.MinDamage]–[%e1.SkillATK_Instant.MaxDamage] physical damage to the target. Reduces the target’s attack speed for [%e2.Slow.RemainTime] and silences them.\nStigma Skill",
    "ch_soaredrock": "Deals [%e1.SkillATK_Instant.MinDamage]–[%e1.SkillATK_Instant.MaxDamage] physical damage to a target within [%First_Target_Valid_Distance]m and binds them for [%e2.bind.RemainTime].\nStigma Skill",
    "ch_splashswing": "Upon successful parry, inflicts [%e1.SkillATK_Instant.MinDamage]~[%e1.SkillATK_Instant.MaxDamage] damage to the target.\nStigma Skill.",
    "ch_stigma_angelicwall": "Creates a shield for [%e1.Shield.RemainTime] that has a [%e1.Shield.ConditionProb]%% chance of blocking damage each time you and up to 12 allies within a 20m radius receive [%e1.Shield.Condition]. Heals [%e2.Heal.CheckTimeHeal] HP every [%e2.Heal.CheckTime]. (The shield blocks [%e1.Shield.CoverValue]%% of the damage you receive each time. It remains effective until it absorbs a total of [%e1.Shield.ShieldValue] damage.)\nStigma Skill",
    "ch_stigma_demonicwall": "Creates a shield for [%e1.Shield.RemainTime] that has a [%e1.Shield.ConditionProb]%% chance of blocking damage each time you and up to 12 allies within a 20m radius receive [%e1.Shield.Condition]. (The shield blocks [%e1.Shield.CoverValue]%% of the damage you receive each time. It remains effective until it absorbs a total of [%e1.Shield.ShieldValue] damage.)\nStigma Skill",
    "ch_stigma_recoverword": "Heals a target within [%First_Target_Valid_Distance]m of you by [%e1.Heal_Instant.Heal], and additionally heals them by [%e2.Heal.CheckTimeHeal] every [%e2.Heal.CheckTime] for [%e2.Heal.RemainTime].\nStigma Skill",
    "ch_surperiorheal": "Heals a target within [%First_Target_Valid_Distance]m of you by [%e1.Heal_Instant.Heal].\nStigma Skill",
    "ch_swordbind": "Binds and reduces the movement speed of a target within [%First_Target_Valid_Distance]m for [%e1.Bind.RemainTime]. If the target is a player character, the duration is reduced.\nReceive Stigmas",
    "ch_thruststrike": "Inflicts [%e1.SkillATK_Instant.MinDamage]–[%e1.SkillATK_Instant.MaxDamage] physical damage and stuns the target temporarily.\nChain Skill Level 2\nAnnihilation (3 Times) – Burst\nStigma Skill",
    "ch_triplethrust": "Inflicts [%e1.SkillATK_Instant.MinDamage]–[%e1.SkillATK_Instant.MaxDamage] physical damage to the target.\nMulticast 3 times.\nChain Skill Level 1\nStigma Skill",
    "cl_imbuemana": "For [%e1.Provoker.RemainTime], you have a [%e1.Provoker.ConditionProb]%% chance of recovering MP with each attack.\nStigma Skill",
    "el_bind": "Binds a target within [%First_Target_Valid_Distance]m for [%e1.Bind.RandomTime]~[%e1.Bind.RemainTime].\nStigma Skill",
    "el_connectboost": "You and the spirit’s [%e1.StatUp.StatName] will be increased by [%e1.StatUp.Value] and [%e1.StatUp.StatName2] by [%e1.StatUp.Value2] for [%e1.StatUp.RemainTime].\nStigma Skill",
    "el_slave_stormservent_dark": "Summons [%e1.SummonHoming.UnitNumber] Cyclone Servants to inflict wind damage to a target within [%First_Target_Valid_Distance]m.\nStigma Skill",
    "el_dimisspolymorph": "Inflicts [%e1.SpellATK_Instant.FixDamage] magical wind damage on a target within [%First_Target_Valid_Distance]m, and deals additional [%e1.SpellATK_Instant.AddDamage] damage if the target is a spirit.\nStigma Skill",
    "el_drainenergy": "Deals [%e1.SpellATKDrain_Instant.FixDamage] magical fire damage to a target within [%First_Target_Valid_Distance]m of you, and absorbs [%e1.SpellATKDrain_Instant.HPHeal]%% of the damage as HP.\nStigma Skill",
    "el_elementalcharge": "Recovers the HP of a spirit within a [%First_Target_Valid_Distance]m radius by [%e1.Heal_Instant.Heal]%% and removes all magical debuffs from it.\nStigma Skill",
    "el_elementtransfer": "Increases MP by [%e1.MPHeal_Instant.Heal] for you and all group members within 25m of you. [%e2.StatUp.StatName] is increased by [%e2.StatUp.Value] for [%e2.StatUp.RemainTime].\nStigma Skill",
    "el_enchantarmor": "Increases your spirit's [%e1.StatUp.StatName] by [%e1.StatUp.Value]%%, [%e1.StatUp.StatName2] by [%e1.StatUp.Value2]%%, [%e1.StatUp.StatName3] by [%e1.StatUp.Value3], [%e2.StatUp.StatName] by [%e2.StatUp.Value]%%, [%e2.StatUp.StatName2] by [%e2.StatUp.Value2], and [%e2.StatUp.StatName3] by [%e2.StatUp.Value3] if it is within a [%First_Target_Valid_Distance]m radius for [%e1.StatUp.RemainTime].\nStigma Skill",
    "el_enchantmentburst": "Removes up to [%e1.DispelBuffCounterATK.DispelCount] buffs from the target and inflicts [%e1.DispelBuffCounterATK.Damage] damage for the first buff removed, as well as a further [%e1.DispelBuffCounterATK.AddDamage] damage for each additional buff removed.\nReceive Stigmas",
    "el_enervationcurse": "Reduces the maximum HP and MP of a target within a [%First_Target_Valid_Distance]m radius by [%e1.Curse.Value] and [%e2.StatDown.StatName] by [%e2.StatDown.Value], also preventing the regeneration of MP for [%e1.Curse.RemainTime]. This debuff cannot be removed.\nStigma Skill",
    "el_enfeeblement": "Reduces the attack speed of a target within [%First_Target_Valid_Distance]m radius for [%e1.Slow.RemainTime] and increases their magic skill casting time. Also reduces [%e2.StatDown.StatName] by [%e2.StatDown.Value] and [%e2.StatDown.StatName2] by [%e2.StatDown.Value2]. Can be removed with skills that dispel magical buffs or debuffs.\nStigma Skill",
    "el_escape": "Puts group members within 20m of you into basic stealth for [%e1.Hide.RemainTime], during which they cannot move.\nUnable to use during battle.\nStigma Skill.",
    "el_ethercharge": "Recovers your spirit's HP by 100%%.\nStigma Skill",
    "el_fireaid": "For [%e1.Provoker.RemainTime], there is a [%e1.Provoker.ConditionProb]%% chance of the caster and the group members within a 20m radius inflicting additional [%e1.Provoker.OtherSkill.e1.ProcATK_Instant.Damage] damage on enemies with every [%e1.Provoker.Condition].\nStigma Skill",
    "el_hellcurse": "Decreases [%e1.StatDown.StatName] by [%e1.StatDown.Value], [%e2.StatDown.StatName] by [%e2.StatDown.Value], and [%e2.StatDown.StatName2] by [%e2.StatDown.Value2] for a target within a [%First_Target_Valid_Distance]m radius for [%e1.StatDown.RemainTime].\nStigma Skill.",
    "el_hellpain": "Inflicts [%e1.SpellATK_Instant.FixDamage] earth damage to a target within a [%First_Target_Valid_Distance]m radius, and deals periodic [%e2.SpellATK.Damage] damage every [%e2.SpellATK.CheckTime] for [%e2.SpellATK.RemainTime]. Can be removed by skills that remove magical buffs or magical debuffs.\nStigma Skill",
    "el_slave_stormservent_light": "Summons [%e1.SummonHoming.UnitNumber] Cyclone Servants to inflict wind damage to a target within [%First_Target_Valid_Distance]m.\nStigma Skill",
    "el_manareverse": "Removes up to [%e1.DispelBuffCounterATK.DispelCount] buffs from the target and inflicts [%e1.DispelBuffCounterATK.Damage] damage for the first buff removed, as well as a further [%e1.DispelBuffCounterATK.AddDamage] damage for each additional buff removed. The target also receives [%e2.SkillLauncher.OtherSkill.e1.SpellATK.Damage] damage every [%e2.SkillLauncher.OtherSkill.e1.SpellATK.CheckTime] for [%e2.SkillLauncher.OtherSkill.e1.SpellATK.RemainTime]. It can be removed with skills that dispel magical buffs or debuffs.\nReceive Stigmas",
    "el_order_elementalfield": "Commands the spirit to use its magical buff on up to 6 allies within a 15m radius.\n\nWater Spirit: Increases Magical Accuracy and Resist Magic\nWind Spirit: Increases Accuracy and Evasion Rate\nEarth Spirit: Restores HP and cures Physical and Mental Altered States\nFire Spirit: Increases Physical Attack and reflects damage\nMagma Spirit: Restores HP and increases Physical Attack\nTempest Spirit: Increases Magical Accuracy, Resist Magic, Accuracy and Evasion Rate.",
    "el_order_omen": "Commands the spirit to use its Altered State skills. The spirit possesses the target and puts it into sleep, reducing attack speed and increasing all elemental defence of the target before disappearing.\nStigma Skill",
    "el_order_sacrifice": "Commands the spirit to use its protection magic. The spirit receives all the damage in place of the caster.\nStigma Skill",
    "el_painroot": "Immobilises enemies within 15m for [%e1.Root.RemainTime]. Reduces [%e2.StatDown.StatName] by [%e2.StatDown.Value] and [%e2.StatDown.StatName2] by [%e2.StatDown.Value2].\nStigma Skill",
    "el_silence": "Silences a target within [%First_Target_Valid_Distance]m for [%e1.Silence.RandomTime]~[%e1.Silence.RemainTime].\nStigma Skill",
    "el_sleepingspirit": "Forces a target within [%First_Target_Valid_Distance]m to fall asleep for [%e1.Sleep.RemainTime] and increases its [%e2.StatUp.StatName]. If the target is a player character, the duration is reduced.\nReceive Stigmas",
    "el_soulsteal": "Deals [%e1.SpellATK_Instant.FixDamage] water damage to a target within [%First_Target_Valid_Distance]m and has a certain chance to dispel [%e2.DispelBuff.Value] normal magic buffs.\nMulticast 5 times.\nStigma Skill",
    "el_stigma_order_destructimpact": "Commands the spirit to attack. Each spirit has an element-specific strike skill.\n\nWater Spirit: Magical Water Strike\nWind Spirit: Sustainable Magical Wind Strike\nEarth Spirit: Magical Earth Strike, Reduced Movement Speed\nFire Spirit: Magical Fire Strike\nMagma Spirit: Magical Fire Strike\nTempest Spirit: Sustainable Magical Wind Strike\nStigma Skill",
    "el_stigma_order_ethereruption_light": "Commands the spirit to use its attack skill, consuming its HP. Each spirit has an element-specific skill that damages an area of effect. It deals an additional damage if the target is an Asmodian or a Balaur.\nStigma Skill\n\nWater Spirit: Water Damage\nWind Spirit: Wind Damage\nEarth Spirit: Earth Damage\nFire Spirit: Fire Damage\nTempest Spirit: Water Damage\nMagma Spirit: Earth Damage",
    "el_stigma_order_shadoweruption_dark": "Commands the spirit to use its attack skill, consuming its HP. Each spirit has an element-specific skill that damages an area of effect. It deals an additional damage if the target is an Elyos or a Balaur.\nStigma Skill\n\nWater Spirit: Water Damage\nWind Spirit: Wind Damage\nEarth Spirit: Earth Damage\nFire Spirit: Fire Damage\nTempest Spirit: Water Damage\nMagma Spirit: Earth Damage",
    "el_stigma_stormblade": "Deals [%e1.SpellATK_Instant.FixDamage] magical wind damage to a target within [%First_Target_Valid_Distance]m of you, and deals a further [%e2.SpellATK.Damage] damage every [%e2.SpellATK.CheckTime] for [%e2.SpellATK.RemainTime].\nStigma Skill",
    "el_sympatheticswitch": "You draw the Enmity of a target within [%First_Target_Valid_Distance]m that is currently focused on your spirit.\nStigma Skill",
    "el_terrorspirit": "Transforms enemies within a 15m radius of you into Fire Spirits for [%e1.Fear.RandomTime] to [%e1.Fear.RemainTime], and the target becomes afraid and its movement speed is reduced. If the target is a player character, the duration is reduced.\nReceive Stigmas",
    "en_th_electricbind": "Inflicts wind damage to an enemy who has been knocked back or in Aether’s Hold within 9m and up to 8 enemies within 7m of them, irrevocably silencing them for 4 sec. and knocking them out of the air. Targets not knocked back or affected by Aether’s Hold are also hit with magical damage and silenced.\nConsumes 10 Ion Flux.\nStigma Skill",
    "en_th_electricbody": "[%e1.StatUp.StatName] and [%e1.StatUp.StatName2] are increased by [%e1.StatUp.Value] and [%e1.StatUp.StatName3] by [%e1.StatUp.Value3] for [%e1.StatUp.RemainTime].\nConsumes 20 Ion Flux.\nStigma Skill",
    "fi_anklegrab": "Immobilises targets within [%First_Target_Valid_Distance]m for [%e1.Root.RemainTime], even if they are attacked. There is only a slight chance this immobilisation can be removed. Also reduces [%e2.StatDown.StatName] by [%e2.StatDown.Value].\nStigma Skill",
    "fi_berserkstance": "[%e1.StatUp.StatName] is increased by [%e1.StatUp.Value]%% and [%e2.StatDown.StatName] is decreased by [%e2.StatDown.Value]%% for [%e1.StatUp.RemainTime].\nStigma Skill",
    "fi_blademode": "Deals an additional 15%% damage when attacking a player. Additionally, [%e2.StatBoost.StatName] is increased by [%e2.StatBoost.FixValue].\nActive Skill\nReceive Stigmas",
    "fi_burserklance": "High probability to hit and then deals [%e1.SkillATK_Instant.MinDamage] - [%e1.SkillATK_Instant.MaxDamage]physical damage to the target.\nReceive Stigmas",
    "fi_charginghit": "High probability to hit and then deals [%e1.SkillATK_Instant.MinDamage] - [%e1.SkillATK_Instant.MaxDamage]physical damage to the target.\nReceive Stigmas",
    "fi_chargingshock": "A further swing of the weapon deals [%e1.SkillATK_Instant.MinDamage]-[%e1.SkillATK_Instant.MaxDamage] physical damage to up to 6 opponents within a 7m radius. Has a high chance of hitting the target. Also has a certain probability of putting the opponent in the [%e1.SkillATK_Instant.AddEffect] state.\nReceive Stigmas",
    "fi_counterchain": "Each [%e1.Provoker.Condition] increases the attack speed by 10%% and movement speed by 10%% for [%e1.Provoker.RemainTime]. Reflects 700 damage to targets which attack from more than 7m range.\nStigma Skill",
    "fi_cripplingcut": "Inflicts [%e1.SkillATK_Instant.MinDamage]~[%e1.SkillATK_Instant.MaxDamage] physical damage on a fallen enemy.\nStigma Skill.",
    "fi_drainsword": "Inflicts [%e1.SkillATKDrain_Instant.MinDamage]~[%e1.SkillATKDrain_Instant.MaxDamage] damage to the target and has a chance to absorb [%e1.SkillATKDrain_Instant.HPHeal]%% of the damage as HP.\nChain Skill Level 3\nSevering Strike - Draining Sword\nStigma Skill.",
    "fi_enfeeblehit": "High probability to hit and then deals [%e1.SkillATK_Instant.MinDamage] - [%e1.SkillATK_Instant.MaxDamage]physical damage to the target. Decreases the target’s [%e2.StatDown.StatName] by [%e2.StatDown.Value] and [%e2.StatDown.StatName2] by [%e2.StatDown.Value2] for [%e2.StatDown.RemainTime].\nReceive Stigmas",
    "fi_heavyimpact": "Deals [%e1.SkillATK_Instant.MinDamage]~[%e1.SkillATK_Instant.MaxDamage] physical damage on the enemies within a 10m radius of you and decreases their movement speed for [%e2.Snare.RandomTime]~[%e2.Snare.RemainTime].\nStigma Skill.",
    "fi_howling": "Lowers [%e1.StatDown.StatName] of the enemies within a 7m radius of you by [%e1.StatDown.Value] for [%e1.StatDown.RemainTime].\nStigma Skill",
    "fi_jumpattack": "Inflicts [%e1.DashATK.MinDamage]~[%e1.DashATK.MaxDamage] damage by dashing to the target within a [%First_Target_Valid_Distance]m radius.\nStigma Skill.",
    "fi_jumpingslash": "Charges at a target within [%First_Target_Valid_Distance]m, inflicting [%e1.DashATK.MinDamage]–[%e1.DashATK.MaxDamage] physical damage and temporarily stunning them. Deals an additional 10%% damage when attacking a player for 10 sec.\nStigma Skill",
    "fi_kneecrash": "Inflicts [%e1.SkillATK_Instant.MinDamage]–[%e1.SkillATK_Instant.MaxDamage] physical damage to enemies. They are immobilised for [%e2.Root.RemainTime], even if they are attacked.\nStigma Skill",
    "fi_lockdownimpact": "Inflicts [%e1.SkillATK_Instant.MinDamage]~[%e1.SkillATK_Instant.MaxDamage] physical damage on the target. The target is bound for [%e2.Bind.RemainTime].\nStigma Skill.",
    "fi_potentialhealth": "Restores your HP by [%e1.Heal_Instant.Heal]%% and increases your [%e2.StatUp.StatName] by [%e2.StatUp.Value]%%, [%e3.StatUp.StatName] by [%e3.StatUp.Value], and [%e4.StatUp.StatName] by [%e4.StatUp.Value] for [%e2.StatUp.RemainTime].\nStigma Skill",
    "fi_ragespirit": "For [%e1.Shield.RemainTime], a protective shield absorbs damage with a [%e1.Shield.ConditionProb]%% chance whenever you are hit by [%e1.Shield.Condition]%. The protective shield remains until [%e1.Shield.CoverValue] damage is absorbed.\nStigma Skill",
    "fi_revengeslash": "Upon successful parry, inflicts [%e1.SkillATK_Instant.MinDamage]~[%e1.SkillATK_Instant.MaxDamage] damage to the target.\nStigma Skill.",
    "fi_seismicdrain": "Inflicts [%e1.SkillATKDrain_Instant.MinDamage] ~ [%e1.SkillATKDrain_Instant.MaxDamage] physical damage on enemies with 7m of you and absorbs [%e1.SkillATKDrain_Instant.HPHeal]%% of the damage as HP.\nChain Skill Level 1\nStigma Skill.",
    "fi_sharpnesshit": "Inflicts [%e1.SkillATK_Instant.MinDamage]~[%e1.SkillATK_Instant.MaxDamage] damage to the target.\nChain Skill Level 1.\nStigma Skill.",
    "fi_stigma_draincut": "Deals [%e1.SkillATKDrain_Instant.MinDamage]-[%e1.SkillATKDrain_Instant.MaxDamage] physical damage to a stumbled enemy and absorbs [%e1.SkillATKDrain_Instant.HPHeal]%% of the damage as HP.\nStigma Skill.",
    "fi_stigma_forceburst": "Deals [%e1.SkillATK_Instant.MinDamage]-[%e1.SkillATK_Instant.MaxDamage] physical damage to a target within [%First_Target_Valid_Distance]m of you and up to 18 other targets within 10m of the target. Reduces [%e2.StatDown.StatName] by [%e2.StatDown.Value] and [%e2.StatDown.StatName2] by [%e2.StatDown.Value2] for [%e2.StatDown.RemainTime].\nStigma Skill",
    "fi_stigma_shockburst": "Deals [%e1.SkillATK_Instant.MinDamage]~[%e1.SkillATK_Instant.MaxDamage] physical damage to up to 18 enemies within a 10m radius, and decreases their [%e2.StatDown.StatName] by [%e2.StatDown.Value] for [%e2.StatDown.RemainTime].\nStigma Skill.",
    "fi_survivorstance": "Recovers HP by [%e1.Heal_Instant.Heal]%% and increases [%e2.StatUp.StatName] by [%e2.StatUp.Value]%% and [%e3.StatUp.StatName] by [%e3.StatUp.Value] for [%e2.StatUp.RemainTime].\nStigma Skill",
    "fi_technicalcounter": "Upon successful parry, inflicts [%e1.SkillATK_Instant.MinDamage]~[%e1.SkillATK_Instant.MaxDamage] damage to the target and puts it in the [%e1.SkillATK_Instant.AddEffect] state.\nStigma Skill.",
    "fi_vorpalhit": "Inflicts [%e1.SkillATK_Instant.MinDamage]~[%e1.SkillATK_Instant.MaxDamage] damage on the target.\nChain Skill Level 2\nSharp Strike - Severing Strike.\nStigma Skill.",
    "fi_whirldrain": "Inflicts [%e1.SkillATKDrain_Instant.MinDamage]–[%e1.SkillATKDrain_Instant.MaxDamage] physical damage on enemies within 7m of the caster and absorbs [%e1.SkillATKDrain_Instant.HPHeal]%% of the damage as HP.\nMulticast 3 times.\nChain Skill Level 1\nStigma Skill",
    "fi_whirltornado": "Inflicts [%e1.SkillATK_Instant.MinDamage]–[%e1.SkillATK_Instant.MaxDamage] physical damage on all enemies within a 7m radius of you and causes them to stumble.\nChain Skill Level 2\nExhausting Wave (3 Times) – Revival Wave\nStigma Skill",
    "kn_absolutescare": "Taunts up to 4 enemies within a 10m radius of you, increasing their Enmity towards you, reducing their movement speed, and fearing them for [%e2.Fear.RemainTime].\nStigma Skill",
    "kn_brainstorm": "Inflicts [%e1.SpellATK_Instant.FixDamage] earth damage to a target within a [%First_Target_Valid_Distance]m radius and stuns the target for [%e2.Stun.RemainTime].\nStigma Skill",
    "kn_breakpower": "Deals [%e1.SkillATK_Instant.MinDamage]–[%e1.SkillATK_Instant.MaxDamage] physical damage to the target, and reduces their [%e2.StatDown.StatName] by [%e2.StatDown.Value] for [%e2.StatDown.RemainTime]. During this time, your [%e0.KN_BreakPower_G1_Buff.e1.StatUp.StatName] increases by [%e0.KN_BreakPower_G1_Buff.e1.StatUp.Value].\nStigma Skill",
    "kn_conquestmind": "Recovers your HP by [%e1.Heal.CheckTimeHeal] every [%e1.Heal.CheckTime] for [%e1.Heal.RemainTime].\nStigma Skill",
    "kn_defendshield": "Generates a shield around a group member within [%First_Target_Valid_Distance]m for [%e1.Shield.RemainTime], absorbing up to [%e1.Shield.CoverValue] damage. Simultaneously increases recovery for you and your target by 15%%.\nStigma Skill",
    "kn_destructshield": "Has a high chance of dealing [%e1.SkillATK_Instant.MinDamage] - [%e1.SkillATK_Instant.MaxDamage] physical damage to the target and causes it to stumble.\nA shield required\nReceive Stigmas",
    "kn_destructwish": "Increases [%e1.StatUp.StatName] by [%e1.StatUp.Value]%%, [%e2.StatUp.StatName] by [%e2.StatUp.Value] and [%e3.StatUp.StatName] by [%e3.StatUp.Value] for [%e1.StatUp.RemainTime].\nStigma Skill",
    "kn_divinepower": "Increases your [%e1.StatUp.StatName] by [%e1.StatUp.Value]%% for [%e1.StatUp.RemainTime].\nStigma Skill",
    "kn_divineslash": "Inflicts [%e1.SkillATK_Instant.MinDamage]~[%e1.SkillATK_Instant.MaxDamage] random physical damage on the target by wielding a Greatsword.\nStigma Skill.",
    "kn_fortitudewave": "Inflicts [%e1.SkillATK_Instant.MinDamage]–[%e1.SkillATK_Instant.MaxDamage] damage to up to 6 enemies within 7m, and immobilises them for [%e2.Root.RemainTime] even if they are attacked.\nStigma Skill",
    "kn_grandprotection": "For [%e1.Protect.RemainTime], you suffer [%e1.Protect.Value]%% damage instead of an ally within [%e1.Protect.Range]m radius whenever ally receives [%e1.Protect.Condition].\nStigma Skill.",
    "kn_highprovoke": "Taunts a target within [%First_Target_Valid_Distance]m of you to increase its Enmity towards you.\nReceive Stigmas",
    "kn_holywrath": "For [%e1.Reflector.RemainTime], you reflect [%e1.Reflector.FixedDamage] damage back to the enemy within [%e1.Reflector.MaxRange]m radius that [%e1.Reflector.Condition]s you.\nStigma Skill",
    "kn_intimidation": "Taunts a target within a [%First_Target_Valid_Distance]m radius, increasing its Enmity towards you, and decreasing its attack speed.\nStigma Skill.",
    "kn_invinsibleprotect": "Creates a protective shield for [%e1.Shield.RemainTime] that has a [%e1.Shield.ConditionProb]%% chance of blocking damage each time the caster and up to 6 allies within a 30m radius receive [%e1.Shield.Condition]. In addition, increases [%e2.StatUp.StatName] by [%e2.StatUp.Value] (The protective shield blocks [%e1.Shield.CoverValue]%% of the damage received per attack).\nStigma Skill",
    "kn_invinsibleshield": "Blocks [%e1.AlwaysBlock.Count] attacks for [%e1.AlwaysBlock.RemainTime] with shield defence.\nA shield required\nStigma Skill",
    "kn_massiveprovoke": "Taunts up to 5 enemies within a 10m radius of you to increase their Enmity.\nStigma Skill",
    "kn_powersink": "Inflicts [%e1.SpellATK_Instant.FixDamage] earth damage to a target within a [%First_Target_Valid_Distance]m radius.\nChain Skill Level 3\nRobust Blow - Magic Smash\nStigma Skill",
    "kn_realsnacher": "Drags a target within [%First_Target_Valid_Distance]m and up to 4 enemies within 6m of them, increasing their Enmity to you and slowing their movement speed for [%e2.Snare.RemainTime].\nStigma Skill",
    "kn_recover": "Restores HP by [%e1.Heal_Instant.Heal].\nStigma Skill",
    "kn_reflectshield": "Increases [%e2.StatBoost.StatName] by [%e2.StatBoost.FixValue], [%e3.StatBoost.StatName] by [%e3.StatBoost.RateValue]%%, [%e4.StatBoost.StatName] by [%e4.StatBoost.FixValue], and reflects [%e1.Reflector.FixedDamage] damage to the enemy that [%e1.Reflector.Condition]s you within a [%e1.Reflector.MaxRange]m radius.\nThis skill is disabled if another skill is used. You cannot jump while the skill is in effect.\nA shield required\nActive Skill\nStigma Skill",
    "kn_sentinel": "Increases the [%e1.StatUp.StatName] of you and up to 12 alliance members within a 30m radius by [%e1.StatUp.Value] for [%e1.StatUp.RemainTime]. You also take less damage from other players.\nStigma Skill",
    "kn_stigma_demonpunishment": "Deals [%e1.SkillATKDrain_Instant.MinDamage]~[%e1.SkillATKDrain_Instant.MaxDamage] physical damage to the target and absorbs [%e1.SkillATKDrain_Instant.HPHeal]%% of the damage as HP.\nStigma Skill.",
    "kn_stigma_godpunishment": "Deals [%e1.SkillATK_Instant.MinDamage]~[%e1.SkillATK_Instant.MaxDamage] physical damage to the target and stuns it for [%e2.Stun.RemainTime].\nStigma Skill.",
    "kn_stigma_resistarmor": "Increases your [%e1.StatUp.StatName] by [%e1.StatUp.Value] for [%e1.StatUp.RemainTime].\nStigma Skill",
    "kn_stunningsnacher": "Grabs an enemy within [%First_Target_Valid_Distance]m of you, pulling it to you, increasing its Enmity towards you, and decreasing its movement speed for [%e2.Snare.RemainTime].\nStigma Skill",
    "kn_stunningsnacher_new": "Grabs an enemy within [%First_Target_Valid_Distance]m of you, pulling them to you, increasing their enmity towards you, and decreasing their movement speed for [%e2.Snare.RemainTime].",
    "kn_thunderblade": "Inflicts [%e1.SkillATK_Instant.MinDamage] ~ [%e1.SkillATK_Instant.MaxDamage] physical damage on a target within a [%First_Target_Valid_Distance]m radius of you.\nStigma Skill.",
    "kn_triplesnacher": "Drags a target within [%First_Target_Valid_Distance]m and up to 6 enemies within 6m of them, increasing their Enmity to you and slowing their movement speed and attack speed for [%e2.Snare.RemainTime].\nStigma Skill",
    "p_equip_dual": "Allows you to use dual weapons skilfully.",
    "pr_bindingheal": "Can be used on an ally within [%First_Target_Valid_Distance]m to restore [%e1.Heal_Instant.Heal] HP.\nStigma Skill",
    "pr_blindinglight": "Blinds the target for [%e1.Blind.RemainTime].\nStigma Skill",
    "pr_calllightning": "Inflicts [%e1.SpellATK_Instant.FixDamage] magical wind damage to a target within a [%First_Target_Valid_Distance]m radius.\nStigma Skill",
    "pr_concentratemode": "Removes Stun, Stumble, Fear, Sleep and Paralysis. Reduces incoming damage by [%e3.Shield.CoverValue]%% for [%e2.StatUp.RemainTime]. Increases [%e2.StatUp.StatName] by [%e2.StatUp.Value] during this time. \nStigma Skill",
    "pr_coursewound": "Inflicts [%e1.SpellATK_Instant.FixDamage] magical water damage on a target within [%First_Target_Valid_Distance]m, and reduces the effect of recovery magic it receives by 50%% for [%e2.DeboostHealAmount.RemainTime].\nStigma Skill.",
    "pr_eternalservent_dark": "Summons a holy spirit near you. This spirit does not move from the summoned spot, and inflicts [%e0.EternalServent_G1.e1.SpellATK_Instant.FixDamage] long-range fire damage to a selected target within a 30m radius. This spirit vanishes after a while and consumes its HP with each attack.\nStigma Skill",
    "pr_healingservent_dark": "Summons a healing servant in your vicinity. You cannot move, but [%e0.PR_Dark_Totem_HealingServent_G1.e1.Heal_Instant.Heal] HP are restored to you and your allies within a radius of 30m. This force will disappear after a while.\nReceive Stigmas",
    "pr_firstaid": "Restores [%e1.Heal_Instant.Heal] HP of a target within [%First_Target_Valid_Distance]m.\nStigma Skill",
    "pr_graceofgod": "For [%e1.BoostSkillCost.RemainTime], your MP level is preserved.\nStigma Skill",
    "pr_healershand": "[%e1.StatUp.StatName] is increased by [%e1.StatUp.Value] and MP consumption when using skills is increased by 8%%.\nActive Skill\nStigma Skill",
    "pr_healinggrace": "Increases the effect of healing magic on group members within 25 m of the caster by 50%% for [%e1.DeboostHealAmount.RemainTime].\nStigma Skill",
    "pr_heallife": "Increases the effectiveness of 5 healing skills by [%e1.OneTimeBoostHealEffect.BonusValue]%% for [%e1.OneTimeBoostHealEffect.RemainTime] and reduces the casting time of healing skills by 50%%.\nStigma Skill",
    "pr_eternalservent_light": "Summons a holy spirit near you. This spirit does not move from the summoned spot, and inflicts [%e0.EternalServent_G1.e1.SpellATK_Instant.FixDamage] long-range fire damage to a selected target within a 30m radius. This spirit vanishes after a while and consumes its HP with each attack.\nStigma Skill",
    "pr_healingservent_light": "Summons a healing servant in your vicinity. You cannot move, but [%e0.PR_Light_Totem_HealingServent_G1.e1.Heal_Instant.Heal] HP are restored to you and your allies within a radius of 30m. This force will disappear after a while.\nReceive Stigmas",
    "pr_massdispel": "Removes all debuffs from you and group members within a 25m radius.\nStigma Skill",
    "pr_massemergentheal": "Restores the HP of you and your group members within a 25m radius by [%e1.Heal_Instant.Heal].\nStigma Skill",
    "pr_memoryblur": "Decreases the Enmity of a target within a [%First_Target_Valid_Distance]m radius. Also restores 500 MP instantly and 500 MP per second for 4 seconds.\nStigma Skill",
    "pr_offensivemode": "Increases [%e1.StatUp.StatName] and [%e1.StatUp.StatName2] by [%e1.StatUp.Value2] and [%e2.StatUp.StatName] by [%e2.StatUp.Value] for [%e1.StatUp.RemainTime]. Magic skill cast times will be reduced by [%e3.BoostSkillCastingTime.CastingBonus]%%.\nStigma Skill",
    "pr_painlinks": "Deals [%e1.SpellATK_Instant.FixDamage] earth damage to a target within [%First_Target_Valid_Distance]m, and inflicts [%e2.SpellATK.Damage] additional damage every [%e2.SpellATK.CheckTime] for [%e2.SpellATK.RemainTime]. [%e4.StatDown.StatName] is reduced by [%e4.StatDown.Value]. If the target is another player and you die while it is in effect, you are resurrected at the active Kisk or Obelisk.\nStigma Skill",
    "pr_powersmite": "Inflicts [%e1.SpellATK_Instant.FixDamage] earth damage to a target within a [%First_Target_Valid_Distance]m radius.\nChain Skill Level 1\nStigma Skill",
    "pr_purgatory": "Inflicts [%e1.SpellATK_Instant.FixDamage] earth damage to a target within a [%First_Target_Valid_Distance]m radius, and deals periodic [%e2.SpellATK.Damage] damage every [%e2.SpellATK.CheckTime] for [%e2.SpellATK.RemainTime].\nStigma Skill",
    "pr_regeneraitionshine": "Instantly recovers the HP of a target within a [%First_Target_Valid_Distance]m radius by [%e1.Heal_Instant.Heal], and recovers its HP by [%e2.Heal.CheckTimeHeal] every [%e2.Heal.CheckTime] for [%e2.Heal.RemainTime]. [%e3.StatUp.StatName] also increases by [%e3.StatUp.Value].\nStigma Skill",
    "pr_reversecondition": "Exchanges your current HP with your MP.\nStigma Skill",
    "pr_revivehand": "Grants a blessing to a group member within a [%First_Target_Valid_Distance]m radius that lasts for [%e1.Rebirth.RemainTime]. If the group member dies while the blessing is in effect, they are resurrected with their HP and MP at [%e1.Rebirth.CurrentHPMP]%%.\nStigma Skill",
    "pr_sageswisdom": "Reduces the casting time of all your magic skills by [%e1.BoostSkillCastingTime.CastingBonus]%% for [%e1.BoostSkillCastingTime.RemainTime].\nStigma Skill",
    "pr_stigma_abysalsanctuary": "Restores the HP of you and your group members within a 25m radius by [%e1.Heal_Instant.Heal]. Also generates a shield which absorbs [%e2.Shield.CoverValue] damage up to a maximum of [%e2.Shield.ShieldValue] whenever you suffer a [%e2.Shield.Condition] for [%e2.Shield.RemainTime].\nStigma Skill",
    "pr_stigma_divinesanctuary": "Restores the HP of you and your group members within a 25m radius by [%e1.Heal_Instant.Heal] immediately, and then regenerates [%e2.Heal.CheckTimeHeal] HP every [%e2.Heal.CheckTime] for [%e2.Heal.RemainTime].\nStigma Skill",
    "pr_stigma_suggestion": "Calms a target within [%First_Target_Valid_Distance]m of you and up to 6 enemies within 20m of the target, reducing their Enmity towards you. For 60 sec. you only consume 50%% of the MP required for skills.\nStigma Skill",
    "pr_suffermemory": "Instantly inflicts [%e1.SpellATK_Instant.FixDamage] wind damage to a target within a [%First_Target_Valid_Distance]m radius, and inflicts periodic [%e2.SpellATK.Damage] earth damage to it every [%e2.SpellATK.CheckTime] for [%e2.SpellATK.RemainTime], while reducing its [%e3.StatDown.StatName] by [%e3.StatDown.Value].\nStigma Skill.",
    "pr_tranquility": "Removes up to 3 altered states cast on you and group members within a 25m radius of you. Also restores [%e2.Heal.CheckTimeHeal] HP.\nStigma Skill",
    "ra_backdashstab": "Inflicts [%e1.BackDashATK.MinDamage]~[%e1.BackDashATK.MaxDamage] physical damage on the target, and you are pushed back 25m. The target is sometimes stunned for [%e2.Stun.RemainTime].\nStigma Skill.",
    "ra_breakshot": "Deals [%e1.SkillATK_Instant.MinDamage]–[%e1.SkillATK_Instant.MaxDamage] physical damage to a target within [%First_Target_Valid_Distance]m and removes their protective buff. The target is confused for 3 seconds. If the target is a player, there is a certain chance they will move randomly.\nStigma Skill",
    "ra_breathofnature": "Increases [%e1.StatUp.StatName] by [%e1.StatUp.Value], [%e1.StatUp.StatName2] by [%e1.StatUp.Value2] and [%e2.StatUp.StatName] by [%e2.StatUp.Value] for [%e1.StatUp.RemainTime].\nStigma Skill",
    "ra_blazingtrap_dark": "Uses 20 Tripeed Seeds to set a trap. The trap lasts for [%e1.SummonTrap.SummonTime] and when an enemy approaches, it explodes, inflicting damage on one enemy who wanders within 5m of it.\nStigma Skill",
    "ra_callcompanion_dark": "Summons [%e1.SummonHoming.UnitNumber] Gryphus, which inflicts physical damage on enemies within a [%First_Target_Valid_Distance]m radius. Each time the Gryphus attack a target, the target is temporarily slowed.\nStigma Skill",
    "ra_fairyflare_dark": "Sets a trap at a point within [%First_Target_Valid_Distance]m of you. The trap lasts for [%e1.SummonTrap.SummonTime]. When an enemy approaches within 30m of the trap, it explodes, making the enemy visible.\nStigma Skill.",
    "ra_heavenstrap_dark": "Uses 3 Tripeed seeds to set up a single trap around you. The trap remains effective for [%e1.SummonTrap.SummonTime]. When an enemy approaches within a 5m radius, it explodes to immobilize the enemy in mid-air.\nStigma Skill",
    "ra_snakebitetrap_dark": "Sets up a ranged trap around you. The trap remains active for [%e1.SummonTrap.SummonTime] and explodes when an enemy comes within 10m of it. Up to 8 enemies in the vicinity suffer damage and have a high chance to be bound in Aether’s Hold.\nStigma Skill",
    "ra_throwingtrap_dark": "Uses 3 Tripeed seeds to set a trap. The trap lasts for [%e1.SummonTrap.SummonTime], and when an enemy approaches within 5m radius, it explodes, immobilizing the enemy and reducing its Evasion.\nStigma Skill",
    "ra_draineye": "For [%e1.Provoker.RemainTime], there is a [%e1.Provoker.ConditionProb]%% chance of recovering your MP with each attack.\nStigma Skill",
    "ra_enchantbow": "Increases [%e1.WeaponStatUp.StatName] of [%e1.WeaponStatUp.WeaponCategory] by [%e1.WeaponStatUp.Value]%% for [%e1.WeaponStatUp.RemainTime].\nStigma Skill",
    "ra_explosionarrow": "Deals [%e1.SkillATK_Instant.MinDamage]~[%e1.SkillATK_Instant.MaxDamage] damage to a target within a [%First_Target_Valid_Distance]m radius.\nStigma Skill.",
    "ra_huntermind": "Performs critical strike attacks up to [%e1.OneTimeBoostSkillCritical.BoostCount] times for [%e1.OneTimeBoostSkillCritical.RemainTime]. In addition, the [%e2.WeaponStatUp.StatName] of your [%e2.WeaponStatUp.WeaponCategory] is reduced by 5m.\nStigma Skill",
    "ra_blazingtrap_light": "Uses 20 Tripeed Seeds to set a trap. The trap lasts for [%e1.SummonTrap.SummonTime] and when an enemy approaches, it explodes, inflicting damage on one enemy who wanders within 5m of it.\nStigma Skill",
    "ra_callcompanion_light": "Summons [%e1.SummonHoming.UnitNumber] Gryphus, which inflicts physical damage on enemies within a [%First_Target_Valid_Distance]m radius. Each time the Gryphus attack a target, the target is temporarily slowed.\nStigma Skill",
    "ra_fairyflare_light": "Sets a trap at a point within [%First_Target_Valid_Distance]m of you. The trap lasts for [%e1.SummonTrap.SummonTime]. When an enemy approaches within 30m of the trap, it explodes, making the enemy visible.\nStigma Skill.",
    "ra_heavenstrap_light": "Uses 3 Tripeed seeds to set up a single trap around you. The trap remains effective for [%e1.SummonTrap.SummonTime]. When an enemy approaches within a 5m radius, it explodes to immobilize the enemy in mid-air.\nStigma Skill",
    "ra_snakebitetrap_light": "Sets up a ranged trap around you. The trap remains active for [%e1.SummonTrap.SummonTime] and explodes when an enemy comes within 10m of it. Up to 8 enemies in the vicinity suffer damage and have a high chance to be bound in Aether’s Hold.\nStigma Skill",
    "ra_throwingtrap_light": "Uses 3 Tripeed seeds to set a trap. The trap lasts for [%e1.SummonTrap.SummonTime], and when an enemy approaches within 5m radius, it explodes, immobilizing the enemy and reducing its Evasion.\nStigma Skill",
    "ra_lightningshot": "Fires an arrow that briefly stuns and inflicts [%e1.SkillATK_Instant.MinDamage]~[%e1.SkillATK_Instant.MaxDamage] damage to a target within a [%First_Target_Valid_Distance]m radius.\nStigma Skill.",
    "ra_marksmanmode": "[%e1.WeaponStatBoost.StatName] of [%e1.WeaponStatBoost.WeaponCategory] increases by [%e1.WeaponStatBoost.RateValue]%%. You move at a very low speed while the skill is in effect.\nActive Skill\nStigma Skill",
    "ra_massexplosionarrow": "High probability to hit within [%First_Target_Valid_Distance]m of you and then deals [%e1.SkillATK_Instant.MinDamage] - [%e1.SkillATK_Instant.MaxDamage]physical damage to the target.\nReceive Stigmas",
    "ra_movingshot": "Inflicts [%e1.SkillATK_Instant.MinDamage]~[%e1.SkillATK_Instant.MaxDamage] damage on a target within a [%First_Target_Valid_Distance]m radius.\nStigma Skill.",
    "ra_painarrow": "Deals [%e1.SkillATK_Instant.MinDamage]–[%e1.SkillATK_Instant.MaxDamage] physical damage via arrows to a target within [%First_Target_Valid_Distance]m. If the target is another player, they suffer additional damage for [%e2.StatDown.RemainTime]. This debuff cannot be removed.\nStigma Skill",
    "ra_panthermove": "Increases [%e1.StatUp.StatName] by [%e1.StatUp.Value]%%, [%e2.StatUp.StatName] by [%e2.StatUp.Value], and the [%e3.WeaponStatUp.StatName] of [%e3.WeaponStatUp.WeaponCategory] by [%e3.WeaponStatUp.Value]%% for [%e1.StatUp.RemainTime].\nStigma Skill",
    "ra_paralyzearrow": "Forces a target within [%First_Target_Valid_Distance]m to fall asleep for [%e1.Sleep.RemainTime]. However, the target's [%e2.StatUp.StatName] increases by [%e2.StatUp.Value].\nStigma Skill",
    "ra_resistmind": "Removes 1 physical debuff on you and enables you to resist [%e2.AlwaysResist.Count] magical attacks within [%e2.AlwaysResist.RemainTime].\nStigma Skill",
    "ra_screamshot": "Inflicts [%e1.SkillATK_Instant.MinDamage]–[%e1.SkillATK_Instant.MaxDamage] physical damage to a target within [%First_Target_Valid_Distance]m which is stunned, knocked back, stumbled, spun or in Aether’s Hold. Reduces target’s recovery by 50%% for 5 seconds. This skill cannot be removed.\nStigma Skill",
    "ra_shadowarrow": "Inflicts [%e1.SkillATK_Instant.MinDamage]~[%e1.SkillATK_Instant.MaxDamage] damage to a target within a [%First_Target_Valid_Distance]m radius with a higher chance of inflicting a critical hit.\nStigma Skill.",
    "ra_silentarrow": "Fires an arrow at a target within [%First_Target_Valid_Distance]m to inflict [%e1.SkillATK_Instant.MinDamage]~[%e1.SkillATK_Instant.MaxDamage] physical damage, and silences the target for [%e2.Silence.RandomTime]~[%e2.Silence.RemainTime].\nStigma Skill.",
    "ra_spoutarrow": "Inflicts [%e1.SkillATK_Instant.MinDamage]~[%e1.SkillATK_Instant.MaxDamage] physical damage on a target within a [%First_Target_Valid_Distance]m radius of you and up to 3 other enemies within a 5m radius of the target.\nStigma Skill.",
    "ra_stigma_ancientarrow_light": "Fires an arrow at a target within [%First_Target_Valid_Distance]m to inflict [%e1.SkillATK_Instant.MinDamage]~[%e1.SkillATK_Instant.MaxDamage] physical damage. This attack has low accuracy.\nStigma Skill.",
    "ra_stigma_mysticarrow_dark": "Fires an arrow at a target within [%First_Target_Valid_Distance]m to inflict [%e1.SkillATK_Instant.MinDamage]~[%e1.SkillATK_Instant.MaxDamage] physical damage. This attack has low accuracy.\nStigma Skill.",
    "ra_stigma_tigereye": "Reduces [%e1.WeaponStatUp.StatName] for [%e1.WeaponStatUp.WeaponCategory] by 13m, and increases [%e2.WeaponStatUp.StatName] by [%e2.WeaponStatUp.Value]%% and [%e3.WeaponStatUp.StatName] by [%e3.WeaponStatUp.Value]%%.\nStigma Skill\nActive Skill",
    "ra_trackermind": "[%e1.WeaponStatUp.StatName] of [%e1.WeaponStatUp.WeaponCategory] increases by [%e1.WeaponStatUp.Value]%%.\nActive Skill\nStigma Skill",
    "sc_trueshotmind": "Boosts your [%e1.OneTimeBoostSkillAttack.AttackType] by [%e1.OneTimeBoostSkillAttack.BonusRate]%% for your next [%e1.OneTimeBoostSkillAttack.AttackCount] attacks within [%e1.OneTimeBoostSkillAttack.RemainTime]. Decreases your [%e2.StatDown.StatName] by [%e2.StatDown.Value]%%.\nStigma Skill",
    "st_alldodge": "Enables you to completely evade physical attacks for [%e1.AlwaysDodge.RemainTime].",
    "st_attack": "Increases [%e1.StatUp.StatName] by [%e1.StatUp.Value]%% and [%e1.StatUp.StatName2] by [%e1.StatUp.Value2] for [%e1.StatUp.RemainTime].",
    "st_bigkick": "Deals [%e1.DashATK.MinDamage]–[%e1.DashATK.MaxDamage] physical damage by charging a target within [%First_Target_Valid_Distance]m.",
    "st_bspin": "Deals [%e1.SkillATK_Instant.MinDamage]–[%e1.SkillATK_Instant.MaxDamage] physical damage to a target. Reduces target’s recovery by 40%% for 4 seconds. This debuff cannot be removed.",
    "st_bukdu": "Deals [%e1.SkillATK_Instant.MinDamage]–[%e1.SkillATK_Instant.MaxDamage] physical damage to a target within [%First_Target_Valid_Distance]m and evades all physical attacks and resists all magic attacks for 3 sec.",
    "st_critical": "The next 3 physical skills deal crit strikes for 10 sec.",
    "st_dash": "Charges at a target within [%First_Target_Valid_Distance]m, inflicting [%e1.DashATK.MinDamage]–[%e1.DashATK.MaxDamage] physical damage and stunning them for 1.5 sec.",
    "st_delay": "Deals heavy wind damage to a target within [%First_Target_Valid_Distance]m after [%e1.DelayedSpellATK_Instant.DelayedTime].",
    "st_p_statboostelemental": "Increases [%e1.StatBoost.StatName] by [%e1.StatBoost.FixValue].",
    "st_p_statboostmaxhp": "Increases [%e1.StatBoost.StatName] by [%e1.StatBoost.FixValue].",
    "st_p_statboostparry": "Increases [%e1.StatBoost.StatName] by [%e1.StatBoost.FixValue].",
    "st_p_statboostphyatk": "Increases [%e1.StatBoost.StatName] by [%e1.StatBoost.FixValue].",
    "st_p_statboostspeed": "Increases [%e1.StatBoost.StatName] by [%e1.StatBoost.RateValue] %%.",
    "st_p_statbooststunarp": "Increases [%e1.StatBoost.StatName] by [%e1.StatBoost.FixValue].",
    "st_pbind": "Deals [%e1.SkillATK_Instant.MinDamage]–[%e1.SkillATK_Instant.MaxDamage] physical damage to the target after a successful parry and binds them for [%e2.Bind.RemainTime].",
    "st_reflect": "When you are attacked, the effect of attack skills is reflected back on the enemy for [%e1.Reflector.RemainTime].",
    "st_speed": "Increases [%e1.StatUp.StatName] by [%e1.StatUp.Value]%% and [%e1.StatUp.StatName2] by [%e1.StatUp.Value2]%% for [%e1.StatUp.RemainTime].",
    "st_spinkk": "Deals [%e1.SkillATK_Instant.MinDamage]–[%e1.SkillATK_Instant.MaxDamage] physical damage to 4 targets in front of you and stuns them for 1.5 sec.",
    "st_stance": "Increases [%e1.StatBoost.StatName] by [%e1.StatBoost.FixValue], [%e3.StatUp.StatName] and [%e3.StatUp.StatName2] by [%e3.StatUp.Value] and [%e2.StatBoost.StatName] by [%e2.StatBoost.RateValue]%%, but reduces your movement speed.\nYou cannot jump or use standard attacks while the skill is active.\nActive Skill",
    "st_superbind": "Inflicts [%e1.SkillATK_Instant.MinDamage]–[%e1.SkillATK_Instant.MaxDamage] physical damage to the target, binding and silencing them for [%e2.Bind.RemainTime].",
    "st_supercritical": "The next 5 physical skills deal crit strikes for 15 sec.",
    "th_brokenthunder": "Inflicts [%e1.SkillATK_Instant.MinDamage]–[%e1.SkillATK_Instant.MaxDamage] physical damage to enemies within 9m and max. 4 enemies within 5m.\nConsumes 20 Ion Flux.\nStigma Skill",
    "th_cryingthunder": "Inflicts [%e1.SkillATK_Instant.MinDamage]–[%e1.SkillATK_Instant.MaxDamage] physical damage on an enemy.\nDeals an additional [%e1.SkillATK_Instant.AddDamage] damage if used on knocked back enemies.\nConsumes 20 Ion Flux.\nStigma Skill",
    "th_elecstorm": "Deals wind damage to a target within 20m and up to 8 enemies within 7m of them, and reduces their movement speed.\nConsumes 10 Ion Flux.\nStigma Skill",
    "th_electricbody": "[%e1.StatUp.StatName] and [%e1.StatUp.StatName2] are increased by [%e1.StatUp.Value] and [%e1.StatUp.StatName3] by [%e1.StatUp.Value3] for [%e1.StatUp.RemainTime].\nConsumes 20 Ion Flux.\nStigma Skill",
    "th_electricboost": "After successfully parrying, [%e1.StatUp.StatName] is increased by [%e1.StatUp.Value]%% and [%e2.StatUp.StatName] by [%e2.StatUp.Value] for [%e1.StatUp.RemainTime].\nConsumes 10 Ion Flux.\nStigma Skill",
    "th_electriccharge": "Charges your Ion Flux by 60 after successfully parrying.\nStigma Skill",
    "th_electricthrow": "Inflicts [%e1.SkillATK_Instant.MinDamage]–[%e1.SkillATK_Instant.MaxDamage] physical damage to the target, blinding and silencing them for [%e2.Blind.RemainTime].\nConsumes 20 Ion Flux.\nStigma Skill",
    "th_judgement": "Deals wind damage to a target within 20m and up to 6 enemies within 5m of them and knocks them back.\nConsumes 20 Ion Flux.\nStigma Skill",
    "th_lightningbolt": "Inflicts [%e1.SkillATK_Instant.MinDamage]–[%e1.SkillATK_Instant.MaxDamage] physical damage to a target, and decreases their [%e2.StatDown.StatName] by [%e2.StatDown.Value] for [%e2.StatDown.RemainTime].\nConsumes 10 Ion Flux.\nStigma Skill",
    "th_lightningshock": "Deals [%e1.SkillATK_Instant.MinDamage]–[%e1.SkillATK_Instant.MaxDamage] physical damage to 4 targets in front of you and knocks them back for 4 seconds.\nConsumes 10 Ion Flux.\nChain Skill Level 2\nThunderstrike – Thundertide\nStigma Skill",
    "th_lightningstorm": "Deals [%e1.SkillATK_Instant.MinDamage]–[%e1.SkillATK_Instant.MaxDamage] physical damage to 4 enemies in front of you.\nMulticast 3 times.\nCharges 10 Ion Flux.\nChain Skill Level 1.\nStigma Skill\nAfter using you can use another individual skill.",
    "th_lightningthunder": "Deals [%e1.SkillATK_Instant.MinDamage]–[%e1.SkillATK_Instant.MaxDamage] physical damage to 4 targets in front of you and knocks them back for 4 seconds.\nCharges 30 Ion Flux.\nChain Skill Level 2\nMassive Thunderstrike (3 Times) – Massive Thundertide\nStigma Skill",
    "th_overload": "Consume no Ion Flux for 24 seconds. Increases [%e2.StatUp.StatName] by [%e2.StatUp.Value]%%, [%e2.StatUp.StatName2] and [%e2.StatUp.Value2]%% and [%e2.StatUp.StatName3] by [%e2.StatUp.Value3]%%.\nStigma Skill",
    "th_poweroff": "Consume only 50%% of the required Ion Flux for 20 seconds. Increases [%e2.StatUp.StatName] by [%e2.StatUp.Value].\nStigma Skill",
    "th_recoverblow": "Deals [%e1.SkillATK_Instant.MinDamage]–[%e1.SkillATK_Instant.MaxDamage] physical damage to the target.\nCharges 20 Ion Flux.\nChain Skill Level 2\nPrimed Strike – Rev Up\nStigma Skill\nAfter using you can use another individual skill.",
    "th_recoverslash": "Inflicts [%e1.SkillATKDrain_Instant.MinDamage]–[%e1.SkillATKDrain_Instant.MaxDamage] physical damage on the target and absorbs [%e1.SkillATKDrain_Instant.HPHeal]%% of the damage as HP.\nCharges 30 Ion Flux.\nStigma Skill",
    "th_returnshadow": "Teleports you to the location where you used the Surge Sprint skill. \nYou can teleport a maximum of 50m.\nConsumes 10 Ion Flux.\nChain Skill Level 2\nSurge Sprint – Power Circuit\nStigma Skill",
    "th_returnshadow_new": "Teleports you to the location where you used the Surge Sprint skill. \nYou can teleport a maximum of 50m.\nConsumes 10 Ion Flux.\nChain Skill Level 2\nSurge Sprint – Power Circuit",
    "th_shockblow": "Deals [%e1.SkillATK_Instant.MinDamage]–[%e1.SkillATK_Instant.MaxDamage] physical damage to the target.\nCharges 10 Ion Flux.\nChain Skill Level 1.\nStigma Skill",
    "th_swiftrecover": "Consumes 30 Ion Flux and recovers 30%% of your HP.\nConsumes 30 Ion Flux.\nStigma Skill",
    "th_swiftresist": "You can resist up to two magic attacks for 10 seconds.\nStigma Skill",
    "th_thunderbolt": "Deals [%e1.SkillATK_Instant.MinDamage]–[%e1.SkillATK_Instant.MaxDamage] physical damage to the target and reduces their attack speed for 4 seconds.\nConsumes 10 Ion Flux.\nStigma Skill",
    "th_thunderreflect": "Each time an enemy within [%e1.Reflector.MaxRange]m attacks you, you reflect [%e1.Reflector.FixedDamage] damage back at the enemy for [%e1.Reflector.RemainTime]. The enemy’s movement speed is reduced for [%e2.Provoker.OtherSkill.e1.Snare.RemainTime]. You also take less damage from other players.\nStigma Skill",
    "th_thunderstorm": "Deals [%e1.SkillATK_Instant.MinDamage]–[%e1.SkillATK_Instant.MaxDamage] physical damage to 4 enemies in front of you.\nReduces the cooldown of Capacitor, Sonic Boom, Superconductor, Magnetic Discharge and Tonic Flash by 20%%.\nMulticast 3 times.\nChain Skill Level 1\nStigma Skill\nAfter using you can use another individual skill.",
    "wa_gatecrush": "Deals [%e1.SkillATK_Instant.MinDamage]~[%e1.SkillATK_Instant.MaxDamage] physical damage to the target. Deals an extra [%e1.SkillATK_Instant.AddDamage] physical damage to castle gates.\nStigma Skill.",
    "wa_steadiness": "Increases your [%e1.StatUp.StatName] by [%e1.StatUp.Value] for [%e1.StatUp.RemainTime].\nStigma Skill",
    "wi_arcaneboost": "Spell casting time decreased by [%e1.BoostSkillCastingTime.CastingBonus]%% for [%e1.BoostSkillCastingTime.RemainTime].\nStigma Skill",
    "wi_arcanepower": "Increases your [%e1.StatUp.StatName] by [%e1.StatUp.Value] for [%e1.StatUp.RemainTime].\nStigma Skill",
    "wi_arcanewisdom": "For [%e1.BoostSkillCost.RemainTime], you can use skills with only [%e1.BoostSkillCost.BonusRate]%% of the required MP.\nStigma Skill",
    "wi_countermagic": "Curses a target within [%First_Target_Valid_Distance]m. For [%e1.MagicCounterATK.RemainTime], each time they use magical skills, they take magic damage equal to [%e1.MagicCounterATK.Damage]%% of their Max HP. This damage will not exceed [%e1.MagicCounterATK.MaxDamage].\nStigma Skill",
    "wi_cursedtree": "Transforms the target into a tree for [%e1.Deform.RemainTime] seconds. While the skill is in effect, the target can neither move nor use skills and [%e3.StatUp.StatName] is increased. Once the target is attacked, the effect disappears immediately. If the target is a player character, the duration is reduced.\nReceive Stigmas",
    "wi_frostpillar_dark": "Inflicts magical water damage on up to 6 enemies within a selected area and reduces their movement speed for 20 seconds.\nStigma Skill.",
    "wi_dark_icyveins": "Reduces the casting time of all your magic skills by [%e1.BoostSkillCastingTime.CastingBonus]%% for [%e1.BoostSkillCastingTime.RemainTime].\nStigma Skill",
    "wi_stigma_lavawave_dark": "Deals [%e1.DelayedSpellATK_Instant.Damage] magical fire damage to a target within [%First_Target_Valid_Distance]m and up to 6 enemies within a 10m radius of the target after [%e1.DelayedSpellATK_Instant.DelayedTime].\nStigma Skill",
    "wi_summontornado_dark": "Summons a tornado for 10 sec. which continuously deals magical wind damage to a target within [%First_Target_Valid_Distance]m and other enemies within 10m of them.\nStigma Skill",
    "wi_elementalseal": "Increases [%e1.StatUp.StatName] by [%e1.StatUp.Value] and [%e2.StatUp.StatName] by [%e2.StatUp.Value] for [%e1.StatUp.RemainTime].\nStigma Skill.",
    "wi_flamestrike": "Inflicts [%e1.SpellATK_Instant.FixDamage] fire damage on a target within a [%First_Target_Valid_Distance]m radius.\nStigma Skill",
    "wi_hpmpexchange": "Exchanges your current HP with your MP.\nStigma Skill",
    "wi_icebarrier": "Creates a shield that blocks [%e1.Shield.CoverValue] damage for [%e1.Shield.RemainTime] each time the caster receives [%e1.Shield.Condition]. The caster is stunned.\nStigma Skill",
    "wi_icyshield": "You reflect [%e1.Reflector.FixedDamage] damage back to the enemy for [%e1.Reflector.RemainTime] when an enemy within [%e1.Reflector.MaxRange]m attacks you with [%e1.Reflector.Condition]. Also decreases their movement and attack speed for [%e2.Provoker.OtherSkill.e1.Snare.RemainTime] and the casting time of magic skills increases.\nStigma Skill",
    "wi_illusiondance": "Removes one abnormal physical condition, and allows the caster to evade [%e2.AlwaysDodge.Count] physical attacks for [%e2.AlwaysDodge.RemainTime].\nStigma Skill",
    "wi_illusionstorm": "Inflicts [%e1.SpellATK_Instant.FixDamage] fire damage on up to 6 targets within a 10m radius. Targets are stunned for [%e2.Stun.RemainTime].\nStigma Skill",
    "wi_frostpillar_light": "Inflicts magical water damage on up to 6 enemies within a selected area and reduces their movement speed for 20 seconds.\nStigma Skill.",
    "wi_light_icyveins": "Increases your [%e1.StatUp.StatName] by [%e1.StatUp.Value] and [%e1.StatUp.StatName2] by [%e1.StatUp.Value2] for [%e1.StatUp.RemainTime].\nStigma Skill",
    "wi_stigma_volcanicflame_light": "Deals [%e1.DelayedSpellATK_Instant.Damage] magical fire damage to a target within [%First_Target_Valid_Distance]m and up to 6 enemies within a 10m radius of the target after [%e1.DelayedSpellATK_Instant.DelayedTime].\nStigma Skill",
    "wi_summontornado_light": "Summons a tornado for 10 sec. which continuously deals magical wind damage to a target within [%First_Target_Valid_Distance]m and other enemies within 10m of them.\nStigma Skill",
    "wi_massexplosion": "Inflicts [%e1.SpellATK_Instant.FixDamage] fire damage to a target within [%First_Target_Valid_Distance]m of you and on up to 6 enemies within a 7m radius of the target.\nStigma Skill",
    "wi_raisingstorm": "Deals [%e1.SpellATK_Instant.FixDamage] earth damage to enemies within a 10m radius and knocks them back with a certain probability.\nMulticast 4 times.\nStigma Skill",
    "wi_rockfall": "Inflicts [%e1.SpellATK_Instant.FixDamage] earth damage on a target within a [%First_Target_Valid_Distance]m radius.\nStigma Skill",
    "wi_sleepingstorm": "Forces a target within a [%First_Target_Valid_Distance]m radius and up to 6 enemies within a 12m radius of the target to fall asleep for [%e1.Sleep.RemainTime] and increases their [%e2.StatUp.StatName]. If the target is a player character, the duration is reduced.\nReceive Stigmas",
    "wi_soulgain": "Increases [%e1.StatUp.StatName] by [%e1.StatUp.Value] for [%e1.StatUp.RemainTime].\nStigma Skill",
    "wi_stigma_icelance": "Deals [%e1.SpellATK_Instant.FixDamage] magical water damage to a target within [%First_Target_Valid_Distance]m of you.\nStigma Skill",
    "wi_stormshock": "Deals [%e1.SpellATK_Instant.FixDamage] wind damage to the target within [%First_Target_Valid_Distance]m, and stuns them for a short time.\nStigma Skill",
    "wi_stormstrike": "Inflicts [%e1.SpellATKDrain_Instant.FixDamage] wind damage on a target within [%First_Target_Valid_Distance]m. Also drains [%e1.SpellATKDrain_Instant.HPHeal]%% of the damage as HP and [%e1.SpellATKDrain_Instant.MPHeal]%% as MP.\nStigma Skill",
    "wi_turnedmirror": "Instantly move backwards [%e1.RandomMoveLoc.Distance]m, restoring mobility and full movement speed. The next magic attack has a very high chance to hit and it inflicts 20%% more damage.\nStigma Skill",
    "wi_windcutter": "Inflicts [%e1.SpellATK_Instant.FixDamage] wind damage to a target within a [%First_Target_Valid_Distance]m radius of and causes it to bleed for [%e2.Bleed.RemainTime].\nStigma Skill",
    "wi_zeropoint": "Deals [%e1.SpellATK_Instant.FixDamage] magical water damage to a target within [%First_Target_Valid_Distance]m of you.\nStigma Skill"
  }
}